Added Pin To Net: NetName=NetD11_1 Pin=D11-A
Added Pin To Net: NetName=NetD11_2 Pin=D11-K
Added Pin To Net: NetName=NetD12_1 Pin=D12-A
Added Pin To Net: NetName=NetD12_2 Pin=D12-K
Added Pin To Net: NetName=NetD13_1 Pin=D13-A
Added Pin To Net: NetName=NetD13_2 Pin=D13-K
Added Pin To Net: NetName=NetD14_1 Pin=D14-A
Added Pin To Net: NetName=NetD7_1 Pin=D14-K
Added Pin To Net: NetName=NetD15_1 Pin=D15-A
Added Pin To Net: NetName=NetD16_1 Pin=D16-A
Added Pin To Net: NetName=NetD5_1 Pin=D16-K
Change Net Name : Old Net Name=NetD11_1 New Net Name=NetD11_A
Change Net Name : Old Net Name=NetD11_2 New Net Name=NetD11_K
Change Net Name : Old Net Name=NetD12_1 New Net Name=NetD12_A
Change Net Name : Old Net Name=NetD12_2 New Net Name=NetD12_K
Change Net Name : Old Net Name=NetD13_1 New Net Name=NetD13_A
Change Net Name : Old Net Name=NetD13_2 New Net Name=NetD13_K
Change Net Name : Old Net Name=NetD14_1 New Net Name=NetD14_A
Change Net Name : Old Net Name=NetD15_1 New Net Name=NetD15_A
Change Net Name : Old Net Name=NetD16_1 New Net Name=NetD16_A
