Added Component: Designator=BAT1(BU2032SM-JJ-MINI-G)
Added Component: Designator=C1(Type E)
Added Component: Designator=C2(C1206)
Added Component: Designator=C3(6032)
Added Component: Designator=C4(C1206)
Added Component: Designator=C5(C1206)
Added Component: Designator=C6(C1206)
Added Component: Designator=C7(C1206)
Added Component: Designator=C8(C1206)
Added Component: Designator=C9(C1206)
Added Component: Designator=C10(RAD-0.3)
Added Component: Designator=C11(C1206)
Added Component: Designator=C12(C1206)
Added Component: Designator=C13(C1206)
Added Component: Designator=C14(C1206)
Added Component: Designator=CON1(ARK2)
Added Component: Designator=CON2(ARK2)
Added Component: Designator=CON3(ARK2)
Added Component: Designator=CON4(ARK3)
Added Component: Designator=CON5(ARK3)
Added Component: Designator=CON6(ARK2)
Added Component: Designator=CON7(ARK3)
Added Component: Designator=CON8(ARK3)
Added Component: Designator=CON9(ARK2)
Added Component: Designator=CON10(ARK2)
Added Component: Designator=CON11(ARK3)
Added Component: Designator=CON12(ARK3)
Added Component: Designator=CON13(ARK2)
Added Component: Designator=CON15(HDR1X10)
Added Component: Designator=CON16(HDR1X2)
Added Component: Designator=CON17(HDR2X6)
Added Component: Designator=CON18(ARK2)
Added Component: Designator=CON201(HDR1X2)
Added Component: Designator=CON202(HDR1X10)
Added Component: Designator=D1(SMA)
Added Component: Designator=D2(C1206)
Added Component: Designator=D3(C1206)
Added Component: Designator=D4(SMA)
Added Component: Designator=D5(SMA)
Added Component: Designator=D6(SMA)
Added Component: Designator=D7(SMA)
Added Component: Designator=D8(C1206)
Added Component: Designator=D11(Diode)
Added Component: Designator=D12(Diode)
Added Component: Designator=D13(Diode)
Added Component: Designator=D14(Diode)
Added Component: Designator=D15(Diode)
Added Component: Designator=D16(Diode)
Added Component: Designator=D17(SOD68)
Added Component: Designator=D18(SOD68)
Added Component: Designator=D19(SOD68)
Added Component: Designator=D20(SOD68)
Added Component: Designator=D21(SOD68)
Added Component: Designator=D22(SOD68)
Added Component: Designator=D201(Diode)
Added Component: Designator=D202(Diode)
Added Component: Designator=D203(Diode)
Added Component: Designator=D204(Diode)
Added Component: Designator=D205(Diode)
Added Component: Designator=D206(Diode)
Added Component: Designator=D207(Diode)
Added Component: Designator=D208(Diode)
Added Component: Designator=D209(C1206)
Added Component: Designator=D210(C1206)
Added Component: Designator=D211(C1206)
Added Component: Designator=D212(C1206)
Added Component: Designator=DP6(LCD2X16)
Added Component: Designator=F1(Fuse)
Added Component: Designator=F2(Fuse)
Added Component: Designator=G1(PB-12N24M-05Q)
Added Component: Designator=J1(HDR1X3)
Added Component: Designator=J2(HDR1X3)
Added Component: Designator=J3(HDR1X2)
Added Component: Designator=J4(HDR1X2)
Added Component: Designator=J5(HDR1X3)
Added Component: Designator=J6(HDR1X3)
Added Component: Designator=J7(HDR1X3)
Added Component: Designator=J8(HDR1X3)
Added Component: Designator=J9(HDR1X3)
Added Component: Designator=J10(HDR1X3)
Added Component: Designator=J11(HDR1X3)
Added Component: Designator=L1(0603)
Added Component: Designator=OC1(PC814)
Added Component: Designator=OC2(PC814)
Added Component: Designator=OC3(PC814)
Added Component: Designator=OC4(PC814)
Added Component: Designator=PK1(RM84)
Added Component: Designator=PK2(RM84)
Added Component: Designator=PK3(RM84)
Added Component: Designator=PR1(TM3JG)
Added Component: Designator=PR2(TM3JG)
Added Component: Designator=R1(14-1210)
Added Component: Designator=R2(14-1210)
Added Component: Designator=R3(14-1210)
Added Component: Designator=R4(14-1210)
Added Component: Designator=R5(14-1210)
Added Component: Designator=R6(14-1210)
Added Component: Designator=R7(14-1210)
Added Component: Designator=R8(J1-0603)
Added Component: Designator=R9(14-1210)
Added Component: Designator=R10(14-1210)
Added Component: Designator=R11(14-1210)
Added Component: Designator=R12(14-1210)
Added Component: Designator=R13(14-1210)
Added Component: Designator=R14(14-1210)
Added Component: Designator=R15(14-1210)
Added Component: Designator=R16(14-1210)
Added Component: Designator=R17(14-1210)
Added Component: Designator=R18(14-1210)
Added Component: Designator=R19(14-1210)
Added Component: Designator=R20(14-1210)
Added Component: Designator=R21(14-1210)
Added Component: Designator=R22(14-1210)
Added Component: Designator=R23(14-1210)
Added Component: Designator=R24(14-1210)
Added Component: Designator=R25(14-1210)
Added Component: Designator=R26(14-1210)
Added Component: Designator=R27(14-1210)
Added Component: Designator=R28(14-1210)
Added Component: Designator=R29(14-1210)
Added Component: Designator=R30(14-1210)
Added Component: Designator=R31(14-1210)
Added Component: Designator=R32(14-1210)
Added Component: Designator=R33(14-1210)
Added Component: Designator=R34(14-1210)
Added Component: Designator=R35(14-1210)
Added Component: Designator=R36(14-1210)
Added Component: Designator=R37(14-1210)
Added Component: Designator=R38(14-1210)
Added Component: Designator=R39(14-1210)
Added Component: Designator=R40(14-1210)
Added Component: Designator=R201(14-1210)
Added Component: Designator=R202(14-1210)
Added Component: Designator=R203(14-1210)
Added Component: Designator=R204(14-1210)
Added Component: Designator=R205(14-1210)
Added Component: Designator=R206(14-1210)
Added Component: Designator=RP1(TT electronics Model 628)
Added Component: Designator=RP201(TT electronics Model 628)
Added Component: Designator=S1(A06 4-P)
Added Component: Designator=S2(A06 4-P)
Added Component: Designator=S3(A06 4-P)
Added Component: Designator=S4(A06 4-P)
Added Component: Designator=S5(A06 4-P)
Added Component: Designator=S6(A06 4-P)
Added Component: Designator=S7(A06 4-P)
Added Component: Designator=S8(A06 4-P)
Added Component: Designator=S9(A06 4-P)
Added Component: Designator=S10(A06 4-P)
Added Component: Designator=S11(A06 4-P)
Added Component: Designator=S12(A06 4-P)
Added Component: Designator=S13(A06 4-P)
Added Component: Designator=S14(A06 4-P)
Added Component: Designator=S15(A06 4-P)
Added Component: Designator=S16(A06 4-P)
Added Component: Designator=T1(SOT23_N)
Added Component: Designator=T2(SOT23_N)
Added Component: Designator=T3(SOT23_N)
Added Component: Designator=T4(SOT23_N)
Added Component: Designator=T5(SOT23_N)
Added Component: Designator=U1(TO-252_N)
Added Component: Designator=U2(40P6)
Added Component: Designator=U4(SOT176-1)
Added Component: Designator=U201(DW16_N)
Added Component: Designator=U202(DW16_N)
Added Component: Designator=X1(HC-49/U-S-SMD)
Added Component: Designator=X2(91SMX)
Added Pin To Net: NetName=C_GND Pin=CON9-2
Added Pin To Net: NetName=C_GND Pin=CON10-1
Added Pin To Net: NetName=C_GND Pin=CON13-2
Added Pin To Net: NetName=C_GND Pin=J8-1
Added Pin To Net: NetName=C_GND Pin=J9-1
Added Pin To Net: NetName=C_GND Pin=J10-1
Added Pin To Net: NetName=C_GND Pin=OC4-4
Added Net: Name=C_GND
Added Pin To Net: NetName=C_VCC Pin=CON13-1
Added Pin To Net: NetName=C_VCC Pin=J8-2
Added Pin To Net: NetName=C_VCC Pin=J9-2
Added Pin To Net: NetName=C_VCC Pin=J10-2
Added Pin To Net: NetName=C_VCC Pin=PK1-4
Added Pin To Net: NetName=C_VCC Pin=PK2-4
Added Pin To Net: NetName=C_VCC Pin=R37-1
Added Net: Name=C_VCC
Added Pin To Net: NetName=GND Pin=BAT1-2
Added Pin To Net: NetName=GND Pin=C1-1
Added Pin To Net: NetName=GND Pin=C2-1
Added Pin To Net: NetName=GND Pin=C3-1
Added Pin To Net: NetName=GND Pin=C4-1
Added Pin To Net: NetName=GND Pin=C5-1
Added Pin To Net: NetName=GND Pin=C6-1
Added Pin To Net: NetName=GND Pin=C7-1
Added Pin To Net: NetName=GND Pin=C8-1
Added Pin To Net: NetName=GND Pin=C9-2
Added Pin To Net: NetName=GND Pin=C10-2
Added Pin To Net: NetName=GND Pin=C11-2
Added Pin To Net: NetName=GND Pin=C12-2
Added Pin To Net: NetName=GND Pin=C13-2
Added Pin To Net: NetName=GND Pin=CON1-2
Added Pin To Net: NetName=GND Pin=CON2-2
Added Pin To Net: NetName=GND Pin=CON3-1
Added Pin To Net: NetName=GND Pin=CON15-10
Added Pin To Net: NetName=GND Pin=CON17-6
Added Pin To Net: NetName=GND Pin=CON202-10
Added Pin To Net: NetName=GND Pin=D20-2
Added Pin To Net: NetName=GND Pin=D21-2
Added Pin To Net: NetName=GND Pin=D22-2
Added Pin To Net: NetName=GND Pin=DP6-1
Added Pin To Net: NetName=GND Pin=DP6-5
Added Pin To Net: NetName=GND Pin=J5-2
Added Pin To Net: NetName=GND Pin=J5-3
Added Pin To Net: NetName=GND Pin=J6-1
Added Pin To Net: NetName=GND Pin=J6-3
Added Pin To Net: NetName=GND Pin=J7-2
Added Pin To Net: NetName=GND Pin=J7-3
Added Pin To Net: NetName=GND Pin=OC1-2
Added Pin To Net: NetName=GND Pin=OC2-2
Added Pin To Net: NetName=GND Pin=OC3-2
Added Pin To Net: NetName=GND Pin=OC4-2
Added Pin To Net: NetName=GND Pin=PR1-1
Added Pin To Net: NetName=GND Pin=R8-2
Added Pin To Net: NetName=GND Pin=R20-1
Added Pin To Net: NetName=GND Pin=T1-2
Added Pin To Net: NetName=GND Pin=T2-2
Added Pin To Net: NetName=GND Pin=T3-2
Added Pin To Net: NetName=GND Pin=T4-2
Added Pin To Net: NetName=GND Pin=T5-2
Added Pin To Net: NetName=GND Pin=U2-11
Added Pin To Net: NetName=GND Pin=U2-31
Added Pin To Net: NetName=GND Pin=U4-4
Added Pin To Net: NetName=GND Pin=U201-1
Added Pin To Net: NetName=GND Pin=U201-2
Added Pin To Net: NetName=GND Pin=U201-8
Added Pin To Net: NetName=GND Pin=U202-1
Added Pin To Net: NetName=GND Pin=U202-8
Added Net: Name=GND
Added Pin To Net: NetName=NetBAT1_1 Pin=BAT1-1
Added Pin To Net: NetName=NetBAT1_1 Pin=J11-1
Added Pin To Net: NetName=NetBAT1_1 Pin=J11-3
Added Net: Name=NetBAT1_1
Added Pin To Net: NetName=NetC1_2 Pin=C2-2
Added Pin To Net: NetName=NetC1_2 Pin=D1-2
Added Pin To Net: NetName=NetC1_2 Pin=U1-1
Added Net: Name=NetC1_2
Added Pin To Net: NetName=NetC7_2 Pin=C7-2
Added Pin To Net: NetName=NetC7_2 Pin=U2-13
Added Pin To Net: NetName=NetC7_2 Pin=X1-1
Added Net: Name=NetC7_2
Added Pin To Net: NetName=NetC8_2 Pin=C8-2
Added Pin To Net: NetName=NetC8_2 Pin=U2-12
Added Pin To Net: NetName=NetC8_2 Pin=X1-2
Added Net: Name=NetC8_2
Added Pin To Net: NetName=NetC9_1 Pin=C9-1
Added Pin To Net: NetName=NetC9_1 Pin=CON15-2
Added Pin To Net: NetName=NetC9_1 Pin=D19-1
Added Pin To Net: NetName=NetC9_1 Pin=D20-1
Added Pin To Net: NetName=NetC9_1 Pin=R38-1
Added Pin To Net: NetName=NetC9_1 Pin=RP1-8
Added Pin To Net: NetName=NetC9_1 Pin=U2-40
Added Net: Name=NetC9_1
Added Pin To Net: NetName=NetC10_1 Pin=C10-1
Added Pin To Net: NetName=NetC10_1 Pin=CON15-3
Added Pin To Net: NetName=NetC10_1 Pin=D18-1
Added Pin To Net: NetName=NetC10_1 Pin=D21-1
Added Pin To Net: NetName=NetC10_1 Pin=R39-1
Added Pin To Net: NetName=NetC10_1 Pin=RP1-7
Added Pin To Net: NetName=NetC10_1 Pin=U2-39
Added Net: Name=NetC10_1
Added Pin To Net: NetName=NetC11_1 Pin=C11-1
Added Pin To Net: NetName=NetC11_1 Pin=CON15-4
Added Pin To Net: NetName=NetC11_1 Pin=D22-1
Added Pin To Net: NetName=NetC11_1 Pin=R40-1
Added Pin To Net: NetName=NetC11_1 Pin=RP1-6
Added Pin To Net: NetName=NetC11_1 Pin=U2-38
Added Net: Name=NetC11_1
Added Pin To Net: NetName=NetC12_1 Pin=C12-1
Added Pin To Net: NetName=NetC12_1 Pin=L1-1
Added Pin To Net: NetName=NetC12_1 Pin=U2-30
Added Net: Name=NetC12_1
Added Pin To Net: NetName=NetC13_1 Pin=C13-1
Added Pin To Net: NetName=NetC13_1 Pin=U2-32
Added Net: Name=NetC13_1
Added Pin To Net: NetName=NetC14_1 Pin=C14-1
Added Pin To Net: NetName=NetC14_1 Pin=U4-1
Added Pin To Net: NetName=NetC14_1 Pin=X2-2
Added Net: Name=NetC14_1
Added Pin To Net: NetName=NetC14_2 Pin=C14-2
Added Pin To Net: NetName=NetC14_2 Pin=D2-2
Added Pin To Net: NetName=NetC14_2 Pin=D3-2
Added Pin To Net: NetName=NetC14_2 Pin=U4-8
Added Net: Name=NetC14_2
Added Pin To Net: NetName=NetCON1_1 Pin=CON1-1
Added Pin To Net: NetName=NetCON1_1 Pin=J1-2
Added Net: Name=NetCON1_1
Added Pin To Net: NetName=NetCON2_1 Pin=CON2-1
Added Pin To Net: NetName=NetCON2_1 Pin=R32-1
Added Pin To Net: NetName=NetCON2_1 Pin=U2-1
Added Net: Name=NetCON2_1
Added Pin To Net: NetName=NetCON3_2 Pin=CON3-2
Added Pin To Net: NetName=NetCON3_2 Pin=R33-1
Added Pin To Net: NetName=NetCON3_2 Pin=U2-2
Added Net: Name=NetCON3_2
Added Pin To Net: NetName=NetCON4_1 Pin=CON4-1
Added Pin To Net: NetName=NetCON4_1 Pin=PK3-3
Added Net: Name=NetCON4_1
Added Pin To Net: NetName=NetCON4_2 Pin=CON4-2
Added Pin To Net: NetName=NetCON4_2 Pin=PK3-1
Added Net: Name=NetCON4_2
Added Pin To Net: NetName=NetCON4_3 Pin=CON4-3
Added Pin To Net: NetName=NetCON4_3 Pin=PK3-2
Added Net: Name=NetCON4_3
Added Pin To Net: NetName=NetCON5_1 Pin=CON5-1
Added Pin To Net: NetName=NetCON5_1 Pin=PK3-6
Added Net: Name=NetCON5_1
Added Pin To Net: NetName=NetCON5_2 Pin=CON5-2
Added Pin To Net: NetName=NetCON5_2 Pin=PK3-4
Added Net: Name=NetCON5_2
Added Pin To Net: NetName=NetCON5_3 Pin=CON5-3
Added Pin To Net: NetName=NetCON5_3 Pin=PK3-5
Added Net: Name=NetCON5_3
Added Pin To Net: NetName=NetCON6_1 Pin=CON6-1
Added Pin To Net: NetName=NetCON6_1 Pin=R7-1
Added Pin To Net: NetName=NetCON6_1 Pin=R9-1
Added Net: Name=NetCON6_1
Added Pin To Net: NetName=NetCON6_2 Pin=CON6-2
Added Pin To Net: NetName=NetCON6_2 Pin=J3-2
Added Pin To Net: NetName=NetCON6_2 Pin=R8-1
Added Net: Name=NetCON6_2
Added Pin To Net: NetName=NetCON7_1 Pin=CON7-1
Added Pin To Net: NetName=NetCON7_1 Pin=PK2-3
Added Net: Name=NetCON7_1
Added Pin To Net: NetName=NetCON7_2 Pin=CON7-2
Added Pin To Net: NetName=NetCON7_2 Pin=PK2-1
Added Net: Name=NetCON7_2
Added Pin To Net: NetName=NetCON7_3 Pin=CON7-3
Added Pin To Net: NetName=NetCON7_3 Pin=PK2-2
Added Net: Name=NetCON7_3
Added Pin To Net: NetName=NetCON8_1 Pin=CON8-1
Added Pin To Net: NetName=NetCON8_1 Pin=PK1-3
Added Net: Name=NetCON8_1
Added Pin To Net: NetName=NetCON8_2 Pin=CON8-2
Added Pin To Net: NetName=NetCON8_2 Pin=PK1-1
Added Net: Name=NetCON8_2
Added Pin To Net: NetName=NetCON8_3 Pin=CON8-3
Added Pin To Net: NetName=NetCON8_3 Pin=PK1-2
Added Net: Name=NetCON8_3
Added Pin To Net: NetName=NetCON9_1 Pin=CON9-1
Added Pin To Net: NetName=NetCON9_1 Pin=F1-2
Added Net: Name=NetCON9_1
Added Pin To Net: NetName=NetCON10_2 Pin=CON10-2
Added Pin To Net: NetName=NetCON10_2 Pin=F2-1
Added Net: Name=NetCON10_2
Added Pin To Net: NetName=NetCON11_1 Pin=CON11-1
Added Pin To Net: NetName=NetCON11_1 Pin=R38-2
Added Net: Name=NetCON11_1
Added Pin To Net: NetName=NetCON11_2 Pin=CON11-2
Added Pin To Net: NetName=NetCON11_2 Pin=R39-2
Added Net: Name=NetCON11_2
Added Pin To Net: NetName=NetCON11_3 Pin=CON11-3
Added Pin To Net: NetName=NetCON11_3 Pin=R40-2
Added Net: Name=NetCON11_3
Added Pin To Net: NetName=NetCON12_1 Pin=CON12-1
Added Pin To Net: NetName=NetCON12_1 Pin=R36-2
Added Net: Name=NetCON12_1
Added Pin To Net: NetName=NetCON12_2 Pin=CON12-2
Added Pin To Net: NetName=NetCON12_2 Pin=R35-2
Added Net: Name=NetCON12_2
Added Pin To Net: NetName=NetCON12_3 Pin=CON12-3
Added Pin To Net: NetName=NetCON12_3 Pin=R34-2
Added Net: Name=NetCON12_3
Added Pin To Net: NetName=NetCON15_5 Pin=CON15-5
Added Pin To Net: NetName=NetCON15_5 Pin=RP1-5
Added Pin To Net: NetName=NetCON15_5 Pin=U2-37
Added Net: Name=NetCON15_5
Added Pin To Net: NetName=NetCON15_6 Pin=CON15-6
Added Pin To Net: NetName=NetCON15_6 Pin=D8-1
Added Pin To Net: NetName=NetCON15_6 Pin=RP1-4
Added Pin To Net: NetName=NetCON15_6 Pin=U2-36
Added Net: Name=NetCON15_6
Added Pin To Net: NetName=NetCON15_7 Pin=CON15-7
Added Pin To Net: NetName=NetCON15_7 Pin=RP1-3
Added Pin To Net: NetName=NetCON15_7 Pin=U2-35
Added Net: Name=NetCON15_7
Added Pin To Net: NetName=NetCON15_8 Pin=CON15-8
Added Pin To Net: NetName=NetCON15_8 Pin=RP1-2
Added Pin To Net: NetName=NetCON15_8 Pin=U2-34
Added Net: Name=NetCON15_8
Added Pin To Net: NetName=NetCON15_9 Pin=CON15-9
Added Pin To Net: NetName=NetCON15_9 Pin=RP1-1
Added Pin To Net: NetName=NetCON15_9 Pin=U2-33
Added Net: Name=NetCON15_9
Added Pin To Net: NetName=NetCON16_1 Pin=CON16-1
Added Pin To Net: NetName=NetCON16_1 Pin=R17-1
Added Pin To Net: NetName=NetCON16_1 Pin=U2-23
Added Pin To Net: NetName=NetCON16_1 Pin=U4-5
Added Net: Name=NetCON16_1
Added Pin To Net: NetName=NetCON16_2 Pin=CON16-2
Added Pin To Net: NetName=NetCON16_2 Pin=R18-1
Added Pin To Net: NetName=NetCON16_2 Pin=U2-22
Added Pin To Net: NetName=NetCON16_2 Pin=U4-6
Added Net: Name=NetCON16_2
Added Pin To Net: NetName=NetCON17_3 Pin=CON17-3
Added Pin To Net: NetName=NetCON17_3 Pin=DP6-13
Added Pin To Net: NetName=NetCON17_3 Pin=U2-8
Added Net: Name=NetCON17_3
Added Pin To Net: NetName=NetCON17_4 Pin=CON17-4
Added Pin To Net: NetName=NetCON17_4 Pin=DP6-11
Added Pin To Net: NetName=NetCON17_4 Pin=U2-6
Added Net: Name=NetCON17_4
Added Pin To Net: NetName=NetCON17_5 Pin=CON17-5
Added Pin To Net: NetName=NetCON17_5 Pin=R10-1
Added Pin To Net: NetName=NetCON17_5 Pin=U2-9
Added Net: Name=NetCON17_5
Added Pin To Net: NetName=NetCON18_1 Pin=CON18-1
Added Pin To Net: NetName=NetCON18_1 Pin=CON18-2
Added Pin To Net: NetName=NetCON18_1 Pin=J5-1
Added Pin To Net: NetName=NetCON18_1 Pin=R28-1
Added Pin To Net: NetName=NetCON18_1 Pin=U2-17
Added Net: Name=NetCON18_1
Added Pin To Net: NetName=NetCON201_1 Pin=CON201-1
Added Pin To Net: NetName=NetCON201_1 Pin=U201-14
Added Pin To Net: NetName=NetCON201_1 Pin=U202-14
Added Net: Name=NetCON201_1
Added Pin To Net: NetName=NetCON201_2 Pin=CON201-2
Added Pin To Net: NetName=NetCON201_2 Pin=U201-15
Added Pin To Net: NetName=NetCON201_2 Pin=U202-15
Added Net: Name=NetCON201_2
Added Pin To Net: NetName=NetCON202_4 Pin=CON202-4
Added Pin To Net: NetName=NetCON202_4 Pin=U201-13
Added Pin To Net: NetName=NetCON202_4 Pin=U202-13
Added Net: Name=NetCON202_4
Added Pin To Net: NetName=NetD1_1 Pin=D1-1
Added Pin To Net: NetName=NetD1_1 Pin=J1-1
Added Pin To Net: NetName=NetD1_1 Pin=J1-3
Added Net: Name=NetD1_1
Added Pin To Net: NetName=NetD4_1 Pin=D4-1
Added Pin To Net: NetName=NetD4_1 Pin=J4-1
Added Net: Name=NetD4_1
Added Pin To Net: NetName=NetD4_2 Pin=D4-2
Added Pin To Net: NetName=NetD4_2 Pin=F1-1
Added Pin To Net: NetName=NetD4_2 Pin=PK1-6
Added Net: Name=NetD4_2
Added Pin To Net: NetName=NetD5_1 Pin=D5-1
Added Pin To Net: NetName=NetD5_1 Pin=PK1-7
Added Pin To Net: NetName=NetD5_1 Pin=T1-3
Added Net: Name=NetD5_1
Added Pin To Net: NetName=NetD6_1 Pin=D6-1
Added Pin To Net: NetName=NetD6_1 Pin=PK2-8
Added Pin To Net: NetName=NetD6_1 Pin=T2-3
Added Net: Name=NetD6_1
Added Pin To Net: NetName=NetD7_1 Pin=D7-1
Added Pin To Net: NetName=NetD7_1 Pin=PK3-8
Added Pin To Net: NetName=NetD7_1 Pin=T3-3
Added Net: Name=NetD7_1
Added Pin To Net: NetName=NetD8_2 Pin=D8-2
Added Pin To Net: NetName=NetD8_2 Pin=J2-1
Added Pin To Net: NetName=NetD8_2 Pin=PR2-2
Added Net: Name=NetD8_2
Added Pin To Net: NetName=NetD11_1 Pin=R11-1
Added Net: Name=NetD11_1
Added Pin To Net: NetName=NetD11_2 Pin=U2-16
Added Net: Name=NetD11_2
Added Pin To Net: NetName=NetD12_1 Pin=R12-1
Added Net: Name=NetD12_1
Added Pin To Net: NetName=NetD12_2 Pin=U2-14
Added Net: Name=NetD12_2
Added Pin To Net: NetName=NetD13_1 Pin=R13-1
Added Net: Name=NetD13_1
Added Pin To Net: NetName=NetD13_2 Pin=U2-15
Added Net: Name=NetD13_2
Added Pin To Net: NetName=NetD14_1 Pin=R14-1
Added Net: Name=NetD14_1
Added Pin To Net: NetName=NetD15_1 Pin=R15-1
Added Net: Name=NetD15_1
Added Pin To Net: NetName=NetD16_1 Pin=R16-1
Added Net: Name=NetD16_1
Added Pin To Net: NetName=NetD201_1 Pin=RP201-3
Added Net: Name=NetD201_1
Added Pin To Net: NetName=NetD201_2 Pin=U201-5
Added Net: Name=NetD201_2
Added Pin To Net: NetName=NetD202_1 Pin=RP201-5
Added Net: Name=NetD202_1
Added Pin To Net: NetName=NetD202_2 Pin=U201-12
Added Net: Name=NetD202_2
Added Pin To Net: NetName=NetD203_1 Pin=RP201-6
Added Net: Name=NetD203_1
Added Pin To Net: NetName=NetD203_2 Pin=U201-11
Added Net: Name=NetD203_2
Added Pin To Net: NetName=NetD204_1 Pin=RP201-7
Added Net: Name=NetD204_1
Added Pin To Net: NetName=NetD204_2 Pin=U201-10
Added Net: Name=NetD204_2
Added Pin To Net: NetName=NetD205_1 Pin=RP201-8
Added Net: Name=NetD205_1
Added Pin To Net: NetName=NetD205_2 Pin=U201-9
Added Net: Name=NetD205_2
Added Pin To Net: NetName=NetD206_1 Pin=R201-1
Added Net: Name=NetD206_1
Added Pin To Net: NetName=NetD206_2 Pin=U201-6
Added Net: Name=NetD206_2
Added Pin To Net: NetName=NetD207_1 Pin=R202-1
Added Net: Name=NetD207_1
Added Pin To Net: NetName=NetD207_2 Pin=U201-7
Added Net: Name=NetD207_2
Added Pin To Net: NetName=NetD208_1 Pin=RP201-4
Added Net: Name=NetD208_1
Added Pin To Net: NetName=NetD208_2 Pin=U201-4
Added Net: Name=NetD208_2
Added Pin To Net: NetName=NetD209_1 Pin=D209-1
Added Pin To Net: NetName=NetD209_1 Pin=S5-1
Added Pin To Net: NetName=NetD209_1 Pin=S6-1
Added Pin To Net: NetName=NetD209_1 Pin=S7-1
Added Pin To Net: NetName=NetD209_1 Pin=S8-1
Added Net: Name=NetD209_1
Added Pin To Net: NetName=NetD209_2 Pin=D209-2
Added Pin To Net: NetName=NetD209_2 Pin=U202-5
Added Net: Name=NetD209_2
Added Pin To Net: NetName=NetD210_1 Pin=D210-1
Added Pin To Net: NetName=NetD210_1 Pin=S1-1
Added Pin To Net: NetName=NetD210_1 Pin=S2-1
Added Pin To Net: NetName=NetD210_1 Pin=S3-1
Added Pin To Net: NetName=NetD210_1 Pin=S4-1
Added Net: Name=NetD210_1
Added Pin To Net: NetName=NetD210_2 Pin=D210-2
Added Pin To Net: NetName=NetD210_2 Pin=U202-4
Added Net: Name=NetD210_2
Added Pin To Net: NetName=NetD211_1 Pin=D211-1
Added Pin To Net: NetName=NetD211_1 Pin=S13-1
Added Pin To Net: NetName=NetD211_1 Pin=S14-1
Added Pin To Net: NetName=NetD211_1 Pin=S15-1
Added Pin To Net: NetName=NetD211_1 Pin=S16-1
Added Net: Name=NetD211_1
Added Pin To Net: NetName=NetD211_2 Pin=D211-2
Added Pin To Net: NetName=NetD211_2 Pin=U202-7
Added Net: Name=NetD211_2
Added Pin To Net: NetName=NetD212_1 Pin=D212-1
Added Pin To Net: NetName=NetD212_1 Pin=S9-1
Added Pin To Net: NetName=NetD212_1 Pin=S10-1
Added Pin To Net: NetName=NetD212_1 Pin=S11-1
Added Pin To Net: NetName=NetD212_1 Pin=S12-1
Added Net: Name=NetD212_1
Added Pin To Net: NetName=NetD212_2 Pin=D212-2
Added Pin To Net: NetName=NetD212_2 Pin=U202-6
Added Net: Name=NetD212_2
Added Pin To Net: NetName=NetDP6_3 Pin=DP6-3
Added Net: Name=NetDP6_3
Added Pin To Net: NetName=NetDP6_4 Pin=DP6-4
Added Pin To Net: NetName=NetDP6_4 Pin=U2-4
Added Net: Name=NetDP6_4
Added Pin To Net: NetName=NetDP6_6 Pin=DP6-6
Added Pin To Net: NetName=NetDP6_6 Pin=U2-3
Added Net: Name=NetDP6_6
Added Pin To Net: NetName=NetDP6_12 Pin=DP6-12
Added Pin To Net: NetName=NetDP6_12 Pin=U2-7
Added Net: Name=NetDP6_12
Added Pin To Net: NetName=NetDP6_14 Pin=DP6-14
Added Pin To Net: NetName=NetDP6_14 Pin=U2-5
Added Net: Name=NetDP6_14
Added Pin To Net: NetName=NetDP6_16 Pin=R6-1
Added Net: Name=NetDP6_16
Added Pin To Net: NetName=NetF2_2 Pin=F2-2
Added Pin To Net: NetName=NetF2_2 Pin=J4-2
Added Pin To Net: NetName=NetF2_2 Pin=PK2-6
Added Net: Name=NetF2_2
Added Pin To Net: NetName=NetG1_2 Pin=G1-2
Added Pin To Net: NetName=NetG1_2 Pin=R19-2
Added Net: Name=NetG1_2
Added Pin To Net: NetName=NetJ3_1 Pin=J3-1
Added Pin To Net: NetName=NetJ3_1 Pin=R9-2
Added Net: Name=NetJ3_1
Added Pin To Net: NetName=NetJ6_2 Pin=J6-2
Added Pin To Net: NetName=NetJ6_2 Pin=R29-1
Added Pin To Net: NetName=NetJ6_2 Pin=U2-18
Added Net: Name=NetJ6_2
Added Pin To Net: NetName=NetJ7_1 Pin=J7-1
Added Pin To Net: NetName=NetJ7_1 Pin=R30-1
Added Pin To Net: NetName=NetJ7_1 Pin=U2-19
Added Net: Name=NetJ7_1
Added Pin To Net: NetName=NetJ8_3 Pin=J8-3
Added Pin To Net: NetName=NetJ8_3 Pin=OC1-4
Added Net: Name=NetJ8_3
Added Pin To Net: NetName=NetJ9_3 Pin=J9-3
Added Pin To Net: NetName=NetJ9_3 Pin=OC2-4
Added Net: Name=NetJ9_3
Added Pin To Net: NetName=NetJ10_3 Pin=J10-3
Added Pin To Net: NetName=NetJ10_3 Pin=OC3-4
Added Net: Name=NetJ10_3
Added Pin To Net: NetName=NetOC1_1 Pin=OC1-1
Added Pin To Net: NetName=NetOC1_1 Pin=R24-1
Added Pin To Net: NetName=NetOC1_1 Pin=U2-26
Added Net: Name=NetOC1_1
Added Pin To Net: NetName=NetOC1_3 Pin=OC1-3
Added Pin To Net: NetName=NetOC1_3 Pin=R34-1
Added Net: Name=NetOC1_3
Added Pin To Net: NetName=NetOC2_1 Pin=OC2-1
Added Pin To Net: NetName=NetOC2_1 Pin=R25-1
Added Pin To Net: NetName=NetOC2_1 Pin=U2-25
Added Net: Name=NetOC2_1
Added Pin To Net: NetName=NetOC2_3 Pin=OC2-3
Added Pin To Net: NetName=NetOC2_3 Pin=R35-1
Added Net: Name=NetOC2_3
Added Pin To Net: NetName=NetOC3_1 Pin=OC3-1
Added Pin To Net: NetName=NetOC3_1 Pin=R26-1
Added Pin To Net: NetName=NetOC3_1 Pin=U2-24
Added Net: Name=NetOC3_1
Added Pin To Net: NetName=NetOC3_3 Pin=OC3-3
Added Pin To Net: NetName=NetOC3_3 Pin=R36-1
Added Net: Name=NetOC3_3
Added Pin To Net: NetName=NetOC4_1 Pin=OC4-1
Added Pin To Net: NetName=NetOC4_1 Pin=R27-1
Added Pin To Net: NetName=NetOC4_1 Pin=U2-21
Added Net: Name=NetOC4_1
Added Pin To Net: NetName=NetOC4_3 Pin=OC4-3
Added Pin To Net: NetName=NetOC4_3 Pin=R37-2
Added Net: Name=NetOC4_3
Added Pin To Net: NetName=NetPR2_1 Pin=PR2-1
Added Pin To Net: NetName=NetPR2_1 Pin=R5-1
Added Pin To Net: NetName=NetPR2_1 Pin=R20-2
Added Net: Name=NetPR2_1
Added Pin To Net: NetName=NetR1_1 Pin=R1-1
Added Pin To Net: NetName=NetR1_1 Pin=T1-1
Added Net: Name=NetR1_1
Added Pin To Net: NetName=NetR1_2 Pin=R1-2
Added Pin To Net: NetName=NetR1_2 Pin=R31-1
Added Pin To Net: NetName=NetR1_2 Pin=U2-20
Added Net: Name=NetR1_2
Added Pin To Net: NetName=NetR2_1 Pin=R2-1
Added Pin To Net: NetName=NetR2_1 Pin=R21-1
Added Pin To Net: NetName=NetR2_1 Pin=U2-29
Added Net: Name=NetR2_1
Added Pin To Net: NetName=NetR2_2 Pin=R2-2
Added Pin To Net: NetName=NetR2_2 Pin=T2-1
Added Net: Name=NetR2_2
Added Pin To Net: NetName=NetR3_1 Pin=R3-1
Added Pin To Net: NetName=NetR3_1 Pin=R22-1
Added Pin To Net: NetName=NetR3_1 Pin=U2-28
Added Net: Name=NetR3_1
Added Pin To Net: NetName=NetR3_2 Pin=R3-2
Added Pin To Net: NetName=NetR3_2 Pin=T3-1
Added Net: Name=NetR3_2
Added Pin To Net: NetName=NetR4_1 Pin=R4-1
Added Pin To Net: NetName=NetR4_1 Pin=R23-1
Added Pin To Net: NetName=NetR4_1 Pin=U2-27
Added Net: Name=NetR4_1
Added Pin To Net: NetName=NetR4_2 Pin=R4-2
Added Pin To Net: NetName=NetR4_2 Pin=T4-1
Added Net: Name=NetR4_2
Added Pin To Net: NetName=NetR5_2 Pin=R5-2
Added Pin To Net: NetName=NetR5_2 Pin=T5-1
Added Net: Name=NetR5_2
Added Pin To Net: NetName=NetR6_2 Pin=R6-2
Added Pin To Net: NetName=NetR6_2 Pin=T5-3
Added Net: Name=NetR6_2
Added Pin To Net: NetName=NetR19_1 Pin=R19-1
Added Pin To Net: NetName=NetR19_1 Pin=T4-3
Added Net: Name=NetR19_1
Added Pin To Net: NetName=NetR203_1 Pin=R203-1
Added Pin To Net: NetName=NetR203_1 Pin=S1-2
Added Pin To Net: NetName=NetR203_1 Pin=S5-2
Added Pin To Net: NetName=NetR203_1 Pin=S9-2
Added Pin To Net: NetName=NetR203_1 Pin=S13-2
Added Pin To Net: NetName=NetR203_1 Pin=U202-12
Added Net: Name=NetR203_1
Added Pin To Net: NetName=NetR204_1 Pin=R204-1
Added Pin To Net: NetName=NetR204_1 Pin=S2-2
Added Pin To Net: NetName=NetR204_1 Pin=S6-2
Added Pin To Net: NetName=NetR204_1 Pin=S10-2
Added Pin To Net: NetName=NetR204_1 Pin=S14-2
Added Pin To Net: NetName=NetR204_1 Pin=U202-11
Added Net: Name=NetR204_1
Added Pin To Net: NetName=NetR205_1 Pin=R205-1
Added Pin To Net: NetName=NetR205_1 Pin=S3-2
Added Pin To Net: NetName=NetR205_1 Pin=S7-2
Added Pin To Net: NetName=NetR205_1 Pin=S11-2
Added Pin To Net: NetName=NetR205_1 Pin=S15-2
Added Pin To Net: NetName=NetR205_1 Pin=U202-10
Added Net: Name=NetR205_1
Added Pin To Net: NetName=NetR206_1 Pin=R206-1
Added Pin To Net: NetName=NetR206_1 Pin=S4-2
Added Pin To Net: NetName=NetR206_1 Pin=S8-2
Added Pin To Net: NetName=NetR206_1 Pin=S12-2
Added Pin To Net: NetName=NetR206_1 Pin=S16-2
Added Pin To Net: NetName=NetR206_1 Pin=U202-9
Added Net: Name=NetR206_1
Added Pin To Net: NetName=NetU4_2 Pin=U4-2
Added Pin To Net: NetName=NetU4_2 Pin=X2-1
Added Net: Name=NetU4_2
Added Pin To Net: NetName=VBAT Pin=D3-1
Added Pin To Net: NetName=VBAT Pin=J11-2
Added Net: Name=VBAT
Added Pin To Net: NetName=VCC_12 Pin=D5-2
Added Pin To Net: NetName=VCC_12 Pin=D6-2
Added Pin To Net: NetName=VCC_12 Pin=D7-2
Added Pin To Net: NetName=VCC_12 Pin=PK1-8
Added Pin To Net: NetName=VCC_12 Pin=PK2-7
Added Pin To Net: NetName=VCC_12 Pin=PK3-7
Added Pin To Net: NetName=VCC_12 Pin=R14-2
Added Pin To Net: NetName=VCC_12 Pin=R15-2
Added Net: Name=VCC_12
Added Pin To Net: NetName=VCC Pin=C3-2
Added Pin To Net: NetName=VCC Pin=C4-2
Added Pin To Net: NetName=VCC Pin=C5-2
Added Pin To Net: NetName=VCC Pin=C6-2
Added Pin To Net: NetName=VCC Pin=CON15-1
Added Pin To Net: NetName=VCC Pin=CON17-2
Added Pin To Net: NetName=VCC Pin=CON202-1
Added Pin To Net: NetName=VCC Pin=D2-1
Added Pin To Net: NetName=VCC Pin=D17-2
Added Pin To Net: NetName=VCC Pin=D18-2
Added Pin To Net: NetName=VCC Pin=D19-2
Added Pin To Net: NetName=VCC Pin=DP6-15
Added Pin To Net: NetName=VCC Pin=G1-1
Added Pin To Net: NetName=VCC Pin=J2-2
Added Pin To Net: NetName=VCC Pin=L1-2
Added Pin To Net: NetName=VCC Pin=PR1-2
Added Pin To Net: NetName=VCC Pin=R7-2
Added Pin To Net: NetName=VCC Pin=R10-2
Added Pin To Net: NetName=VCC Pin=R11-2
Added Pin To Net: NetName=VCC Pin=R12-2
Added Pin To Net: NetName=VCC Pin=R13-2
Added Pin To Net: NetName=VCC Pin=R16-2
Added Pin To Net: NetName=VCC Pin=R17-2
Added Pin To Net: NetName=VCC Pin=R18-2
Added Pin To Net: NetName=VCC Pin=R21-2
Added Pin To Net: NetName=VCC Pin=R22-2
Added Pin To Net: NetName=VCC Pin=R23-2
Added Pin To Net: NetName=VCC Pin=R24-2
Added Pin To Net: NetName=VCC Pin=R25-2
Added Pin To Net: NetName=VCC Pin=R26-2
Added Pin To Net: NetName=VCC Pin=R27-2
Added Pin To Net: NetName=VCC Pin=R28-2
Added Pin To Net: NetName=VCC Pin=R29-2
Added Pin To Net: NetName=VCC Pin=R30-2
Added Pin To Net: NetName=VCC Pin=R31-2
Added Pin To Net: NetName=VCC Pin=R32-2
Added Pin To Net: NetName=VCC Pin=R33-2
Added Pin To Net: NetName=VCC Pin=R201-2
Added Pin To Net: NetName=VCC Pin=R202-2
Added Pin To Net: NetName=VCC Pin=R203-2
Added Pin To Net: NetName=VCC Pin=R204-2
Added Pin To Net: NetName=VCC Pin=R205-2
Added Pin To Net: NetName=VCC Pin=R206-2
Added Pin To Net: NetName=VCC Pin=RP1-9
Added Pin To Net: NetName=VCC Pin=RP1-10
Added Pin To Net: NetName=VCC Pin=RP1-11
Added Pin To Net: NetName=VCC Pin=RP1-12
Added Pin To Net: NetName=VCC Pin=RP1-13
Added Pin To Net: NetName=VCC Pin=RP1-14
Added Pin To Net: NetName=VCC Pin=RP1-15
Added Pin To Net: NetName=VCC Pin=RP1-16
Added Pin To Net: NetName=VCC Pin=RP201-9
Added Pin To Net: NetName=VCC Pin=RP201-10
Added Pin To Net: NetName=VCC Pin=RP201-11
Added Pin To Net: NetName=VCC Pin=RP201-12
Added Pin To Net: NetName=VCC Pin=RP201-13
Added Pin To Net: NetName=VCC Pin=RP201-14
Added Pin To Net: NetName=VCC Pin=RP201-15
Added Pin To Net: NetName=VCC Pin=RP201-16
Added Pin To Net: NetName=VCC Pin=U1-3
Added Pin To Net: NetName=VCC Pin=U2-10
Added Pin To Net: NetName=VCC Pin=U4-3
Added Pin To Net: NetName=VCC Pin=U201-3
Added Pin To Net: NetName=VCC Pin=U201-16
Added Pin To Net: NetName=VCC Pin=U202-2
Added Pin To Net: NetName=VCC Pin=U202-3
Added Pin To Net: NetName=VCC Pin=U202-16
Added Net: Name=VCC
Added Class: Name=Sheet1
Added Class: Name=Sheet2
Added Room: Name=Sheet1
Added Room: Name=Sheet2
